<?xml version="1.0" encoding="UTF-8" standalone="no"?>
<!-- Created with Inkscape (http://www.inkscape.org/) -->

<svg
   xmlns:dc="http://purl.org/dc/elements/1.1/"
   xmlns:cc="http://creativecommons.org/ns#"
   xmlns:rdf="http://www.w3.org/1999/02/22-rdf-syntax-ns#"
   xmlns:svg="http://www.w3.org/2000/svg"
   xmlns="http://www.w3.org/2000/svg"
   xmlns:sodipodi="http://sodipodi.sourceforge.net/DTD/sodipodi-0.dtd"
   xmlns:inkscape="http://www.inkscape.org/namespaces/inkscape"
   width="209.97333mm"
   height="91.694mm"
   viewBox="0 0 743.99998 324.9"
   id="svg3356"
   version="1.1"
   inkscape:version="0.92.4 (5da689c313, 2019-01-14)"
   sodipodi:docname="CBlue-logo-découpe_contour.svg">
  <defs
     id="defs3358" />
  <sodipodi:namedview
     id="base"
     pagecolor="#ffffff"
     bordercolor="#666666"
     borderopacity="1.0"
     inkscape:pageopacity="0.0"
     inkscape:pageshadow="2"
     inkscape:zoom="3.6428932"
     inkscape:cx="396.79999"
     inkscape:cy="173.28"
     inkscape:document-units="px"
     inkscape:current-layer="layer1"
     showgrid="false"
     fit-margin-top="0"
     fit-margin-left="0"
     fit-margin-right="0"
     fit-margin-bottom="0"
     inkscape:window-width="3840"
     inkscape:window-height="2031"
     inkscape:window-x="0"
     inkscape:window-y="55"
     inkscape:window-maximized="1" />
  <metadata
     id="metadata3361">
    <rdf:RDF>
      <cc:Work
         rdf:about="">
        <dc:format>image/svg+xml</dc:format>
        <dc:type
           rdf:resource="http://purl.org/dc/dcmitype/StillImage" />
        <dc:title></dc:title>
      </cc:Work>
    </rdf:RDF>
  </metadata>
  <g
     inkscape:label="Layer 1"
     inkscape:groupmode="layer"
     id="layer1"
     transform="translate(0,-727.46221)">
    <path
       style="color:#000000;font-style:normal;font-variant:normal;font-weight:normal;font-stretch:normal;font-size:medium;line-height:normal;font-family:sans-serif;font-variant-ligatures:normal;font-variant-position:normal;font-variant-caps:normal;font-variant-numeric:normal;font-variant-alternates:normal;font-feature-settings:normal;text-indent:0;text-align:start;text-decoration:none;text-decoration-line:none;text-decoration-style:solid;text-decoration-color:#000000;letter-spacing:normal;word-spacing:normal;text-transform:none;writing-mode:lr-tb;direction:ltr;text-orientation:mixed;dominant-baseline:auto;baseline-shift:baseline;text-anchor:start;white-space:normal;shape-padding:0;clip-rule:nonzero;display:inline;overflow:visible;visibility:visible;opacity:1;isolation:auto;mix-blend-mode:normal;color-interpolation:sRGB;color-interpolation-filters:linearRGB;solid-color:#000000;solid-opacity:1;vector-effect:none;fill:none;fill-opacity:1;fill-rule:nonzero;stroke:#000000;stroke-width:0.1875;stroke-linecap:butt;stroke-linejoin:miter;stroke-miterlimit:4;stroke-dasharray:none;stroke-dashoffset:0;stroke-opacity:1;color-rendering:auto;image-rendering:auto;shape-rendering:auto;text-rendering:auto;enable-background:accumulate"
       d="m 93.671875,791.77344 -0.01758,0.11328 c -3.256065,0.0311 -6.615179,0.0639 -8.617188,0.3457 -19.350717,2.72323 -35.804166,10.87838 -49.447265,24.52149 -13.47676,13.47675 -21.562389,29.53331 -24.519532,48.65234 -0.969949,6.27108 -1.047505,17.62629 -0.146484,23.78516 1.871734,12.79408 6.223452,24.70431 12.857422,35.10156 6.526523,10.22884 16.503179,20.12743 26.806641,26.60351 10.854405,6.82237 23.993099,11.33351 36.824218,12.64649 4.623942,0.47315 15.572881,0.24339 20.117191,-0.43359 12.50665,-1.86317 23.99491,-6.16896 34.37109,-12.89649 2.61902,-1.69807 5.52695,-3.8724 7.85742,-5.79101 1.16557,-0.95958 2.18034,-1.84739 2.97657,-2.62891 0.36756,-0.36077 0.68654,-0.70424 0.99023,-1.07617 0.45764,-0.51339 0.98741,-1.25848 1.07617,-2.33985 0.0912,-1.11058 -0.42149,-2.08682 -0.83203,-2.61523 -0.18428,-0.24213 -0.36456,-0.45198 -0.56445,-0.67969 -0.43257,-0.49271 -0.98633,-1.08461 -1.64649,-1.77148 -1.32061,-1.37408 -3.05326,-3.10904 -4.81445,-4.83203 -1.76103,-1.72283 -3.54399,-3.42634 -4.96289,-4.73243 -0.70789,-0.6516 -1.31928,-1.20408 -1.83203,-1.63671 -0.20763,-0.17521 -0.39683,-0.32445 -0.5918,-0.47266 l -0.004,-0.002 c -0.47516,-0.39478 -1.35244,-0.88907 -2.29687,-0.91407 -0.94609,-0.025 -1.49763,0.26623 -1.83203,0.41407 l -0.0508,0.0215 -0.0488,0.0234 c -0.37043,0.18115 -0.69024,0.37753 -1.01953,0.58984 -0.66767,0.43052 -1.40291,0.97027 -2.15235,1.58399 -6.5836,5.39128 -14.40232,9.30033 -22.67382,11.33203 -0.89234,0.21917 -0.93286,0.2189 -1.33008,0.30078 -3.41213,-4.05082 -6.9627,-8.31085 -10.101565,-12.07813 -6.401147,-7.68238 -14.856191,-17.8425 -23.292969,-27.99218 -8.436809,-10.14973 -16.856747,-20.28899 -23.189453,-27.92579 -3.166268,-3.8183 -5.810923,-7.01268 -7.673828,-9.26757 -0.931212,-1.12715 -1.665974,-2.01818 -2.171875,-2.63477 -0.0055,-0.007 -0.0063,-0.009 -0.01172,-0.0156 0.670591,-1.83237 4.137213,-8.47472 5.302735,-10.02149 3.494128,-4.63706 11.023036,-11.83973 16.972656,-16.1289 4.978703,-3.58923 13.261585,-7.1112 20.701172,-8.67774 4.377081,-0.92169 14.049184,-1.22827 18.753906,-0.57031 10.76185,1.50503 20.44255,5.72195 28.71484,12.49609 0.74595,0.61084 1.47868,1.15123 2.14844,1.58399 0.32861,0.21232 0.64699,0.40886 1.01563,0.58984 0.17545,0.0861 0.40724,0.18992 0.68554,0.2793 0.005,0.002 0.97771,0.25131 1.67578,0.14257 0.57079,-0.0889 1.50684,-0.60384 1.28907,-0.4746 0.16354,-0.0972 0.31564,-0.20182 0.44531,-0.29688 0.25238,-0.18506 0.479,-0.37136 0.72851,-0.58203 0.50843,-0.42927 1.12365,-0.98087 1.83399,-1.63477 1.41857,-1.30582 3.20264,-3.00716 4.96484,-4.73046 1.7623,-1.72341 3.49558,-3.4608 4.81641,-4.83399 0.66009,-0.68626 1.21335,-1.27686 1.64648,-1.76953 h 0.002 c 0.21848,-0.24854 0.40706,-0.47307 0.58789,-0.71289 0.0631,-0.0837 0.18309,-0.2385 0.32422,-0.47852 -0.39991,0.68051 0.49609,-1.02654 0.49609,-1.77539 0,-1.04173 -0.88664,-2.3992 -0.77539,-2.24414 -0.23092,-0.32184 -0.46135,-0.58351 -0.70313,-0.84375 -0.49305,-0.53067 -1.08697,-1.09549 -1.78515,-1.72461 -1.40067,-1.26213 -3.21611,-2.76155 -5.10352,-4.18554 -11.20659,-8.45512 -24.52507,-13.90876 -39.22851,-16.11719 -2.58941,-0.38894 -6.79847,-0.54889 -11.109378,-0.57422 z m 2.404297,5.63867 c 4.169608,0.0245 8.456078,0.23405 10.304688,0.51172 13.85375,2.08081 26.25147,7.18049 36.67773,15.04687 1.75368,1.32311 3.47698,2.74882 4.72461,3.87305 0.2975,0.26807 0.4459,0.42818 0.67969,0.65234 -0.25481,0.2737 -0.43731,0.48109 -0.76172,0.81836 -1.25769,1.30756 -2.9652,3.01706 -4.69531,4.70899 -1.73022,1.69202 -3.48687,3.37175 -4.83984,4.61718 -0.49875,0.45911 -0.86049,0.77535 -1.22071,1.08985 -0.38074,-0.26503 -0.7789,-0.54233 -1.23047,-0.91211 -9.05613,-7.41602 -19.76298,-12.07344 -31.5,-13.71484 -5.823684,-0.81445 -15.111132,-0.53833 -20.691402,0.63671 -8.240066,1.7351 -16.917154,5.35643 -22.830079,9.61915 -6.510172,4.69328 -14.072849,11.85968 -18.175781,17.30468 -2.142,2.84266 -5.220844,8.63164 -6.300781,11.92969 -0.192252,0.58711 -0.335268,1.01189 -0.369141,1.73828 -0.05378,0.94294 0.211295,1.6819 0.730469,2.34961 l 0.0078,0.01 0.0078,0.01 c 0.03552,0.0448 0.0976,0.12421 0.175781,0.22071 0.147804,0.18243 0.347803,0.42315 0.601563,0.73242 0.51307,0.62533 1.249936,1.52028 2.183594,2.65039 1.866834,2.25965 4.514046,5.45549 7.68164,9.27539 6.335015,7.63958 14.755455,17.7806 23.19336,27.93164 8.437936,10.15108 16.893531,20.31303 23.296874,27.99805 3.398553,4.07895 7.279708,8.74597 10.968748,13.11523 l 0.10157,0.12109 0.11328,0.10743 c 0,0 0.82678,0.94981 2.39062,0.97656 l 0.11914,0.002 0.11914,-0.008 c 1.01903,-0.069 1.68954,-0.28726 3.2793,-0.67774 9.09504,-2.23398 17.65633,-6.51247 24.89648,-12.4414 0.45056,-0.36897 0.85152,-0.6467 1.23438,-0.91211 0.35891,0.31377 0.7213,0.62835 1.22266,1.08984 1.35189,1.24441 3.10837,2.92324 4.83789,4.61524 1.72934,1.69183 3.43703,3.40374 4.69335,4.71093 0.33303,0.3465 0.52219,0.56087 0.78126,0.83985 -0.59748,0.56773 -1.34696,1.24404 -2.30079,2.02929 -2.16387,1.78147 -4.97437,3.88107 -7.34179,5.41602 -9.70806,6.29435 -20.38332,10.3012 -32.14063,12.05274 -3.14453,0.46845 -15.43264,0.73429 -18.714842,0.39843 -11.91161,-1.21888 -24.345528,-5.48703 -34.40625,-11.81054 -9.485472,-5.96196 -19.053383,-15.4604 -25.05664,-24.86915 -6.18664,-9.69615 -10.269763,-20.83286 -12.033204,-32.88671 -0.731795,-5.00214 -0.662365,-16.93428 0.138672,-22.11329 2.795195,-18.07197 10.235188,-32.83284 22.9375,-45.53515 12.845655,-12.84566 27.991271,-20.35736 46.25586,-22.92774 1.805084,-0.25403 6.084271,-0.41511 10.253906,-0.39062 z"
       id="path8615"
       inkscape:connector-curvature="0" />
    <path
       style="color:#000000;font-style:normal;font-variant:normal;font-weight:normal;font-stretch:normal;font-size:medium;line-height:normal;font-family:sans-serif;font-variant-ligatures:normal;font-variant-position:normal;font-variant-caps:normal;font-variant-numeric:normal;font-variant-alternates:normal;font-feature-settings:normal;text-indent:0;text-align:start;text-decoration:none;text-decoration-line:none;text-decoration-style:solid;text-decoration-color:#000000;letter-spacing:normal;word-spacing:normal;text-transform:none;writing-mode:lr-tb;direction:ltr;text-orientation:mixed;dominant-baseline:auto;baseline-shift:baseline;text-anchor:start;white-space:normal;shape-padding:0;clip-rule:nonzero;display:inline;overflow:visible;visibility:visible;opacity:1;isolation:auto;mix-blend-mode:normal;color-interpolation:sRGB;color-interpolation-filters:linearRGB;solid-color:#000000;solid-opacity:1;vector-effect:none;fill:none;fill-opacity:1;fill-rule:nonzero;stroke:#000000;stroke-width:0.1875;stroke-linecap:butt;stroke-linejoin:miter;stroke-miterlimit:4;stroke-dasharray:none;stroke-dashoffset:0;stroke-opacity:1;color-rendering:auto;image-rendering:auto;shape-rendering:auto;text-rendering:auto;enable-background:accumulate"
       d="m 31.925781,873.11328 -0.488281,7.01953 c -0.310565,4.46785 0.383032,8.73851 1.169922,12.05469 v 0.004 l 0.002,0.004 c 0.903073,3.76556 2.131584,7.8026 3.470703,10.99805 5.246933,12.52037 15.522967,24.33693 26.88086,30.79687 2.412125,1.37193 5.898015,2.95383 9.128906,4.26758 1.61567,0.65698 3.1506,1.23835 4.458984,1.67578 1.270224,0.42469 2.211308,0.80392 3.578125,0.83008 h 0.0059 0.0059 c 0.0965,0.001 0.518519,0.0152 0.996094,-0.084 h 0.0039 c 0.201305,-0.0421 0.775357,-0.20597 1.238281,-0.51563 0.737381,-0.49356 1.105236,-0.92264 1.380859,-1.90429 0.318354,-1.13376 -0.346493,-2.6903 -0.300781,-2.60352 -0.159462,-0.30275 -0.318112,-0.52426 -0.425781,-0.67383 -0.135895,-0.18893 -0.211866,-0.26966 -0.273438,-0.3457 -0.0947,-0.11696 -0.225262,-0.27779 -0.392578,-0.48242 -0.330615,-0.40434 -0.80388,-0.98273 -1.404296,-1.71289 -1.199025,-1.45815 -2.905244,-3.52854 -4.994141,-6.06055 -4.177698,-5.06388 -9.883826,-11.97212 -16.113281,-19.50391 z m 5.814453,15.85547 17.777344,21.49414 c 6.228265,7.53035 11.933951,14.43497 16.109375,19.49609 1.054908,1.27869 1.678091,2.03696 2.521485,3.06055 -3.04937,-1.24246 -6.440126,-2.80166 -8.40625,-3.91992 -10.024246,-5.70142 -19.76723,-16.84916 -24.47461,-28.08203 -1.153713,-2.75303 -2.3442,-6.61231 -3.1875,-10.12696 v -0.004 c -3.42e-4,-0.001 -0.0016,-0.002 -0.002,-0.004 -0.13639,-0.5752 -0.216075,-1.28499 -0.337891,-1.91406 z"
       id="path8619"
       inkscape:connector-curvature="0" />
    <path
       style="color:#000000;font-style:normal;font-variant:normal;font-weight:normal;font-stretch:normal;font-size:medium;line-height:normal;font-family:sans-serif;font-variant-ligatures:normal;font-variant-position:normal;font-variant-caps:normal;font-variant-numeric:normal;font-variant-alternates:normal;font-feature-settings:normal;text-indent:0;text-align:start;text-decoration:none;text-decoration-line:none;text-decoration-style:solid;text-decoration-color:#000000;letter-spacing:normal;word-spacing:normal;text-transform:none;writing-mode:lr-tb;direction:ltr;text-orientation:mixed;dominant-baseline:auto;baseline-shift:baseline;text-anchor:start;white-space:normal;shape-padding:0;clip-rule:nonzero;display:inline;overflow:visible;visibility:visible;opacity:1;isolation:auto;mix-blend-mode:normal;color-interpolation:sRGB;color-interpolation-filters:linearRGB;solid-color:#000000;solid-opacity:1;vector-effect:none;fill:none;fill-opacity:1;fill-rule:nonzero;stroke:#000000;stroke-width:0.1875;stroke-linecap:butt;stroke-linejoin:miter;stroke-miterlimit:4;stroke-dasharray:none;stroke-dashoffset:0;stroke-opacity:1;color-rendering:auto;image-rendering:auto;shape-rendering:auto;text-rendering:auto;enable-background:accumulate"
       d="m 175.05859,791.79883 -0.0176,2.79492 -0.082,12.94531 c -0.0391,6.20583 -0.064,9.28147 0.0176,11.1543 0.0404,0.9277 0.0945,1.63271 0.31055,2.39453 0.24267,0.85606 0.70726,1.51543 0.90234,1.7793 0.18303,0.24744 0.31467,0.39986 0.59375,0.74023 0.28022,0.34174 0.67415,0.81982 1.16602,1.41406 0.97877,1.1825 2.34609,2.82875 4.00586,4.82227 3.32017,3.98783 7.80891,9.36241 12.66211,15.16406 4.85006,5.79792 9.25678,11.08338 12.45117,14.92774 0.35042,0.42172 0.50992,0.61606 0.83008,1.00195 -3.15514,0.0338 -6.92038,0.0653 -11.33789,0.084 l -21.51563,0.0918 -0.0898,50.54492 c -0.0226,12.99691 -0.0245,24.88666 -0.01,33.58008 0.007,4.34728 0.0195,7.89506 0.0352,10.38477 v 7.97265 l 105.38867,-0.20312 3.73633,-0.72266 c 10.54152,-2.03783 19.35366,-6.59577 26.66211,-13.84765 7.99913,-7.9372 12.0606,-16.95831 13.25781,-29.1875 0.68717,-7.01941 -0.0618,-14.7266 -2.10742,-20.82032 -1.97243,-5.87583 -5.61693,-11.52137 -10.28711,-16.02343 -5.091,-4.90774 -10.36686,-7.79993 -19.63477,-10.99414 5.89366,-2.66123 9.23888,-4.68504 12.34571,-7.82227 7.25611,-7.32709 10.72242,-17.36599 10.27734,-28.93945 -0.4825,-12.54674 -4.34783,-22.26599 -12.11523,-29.76954 -6.63928,-6.4137 -15.199,-10.72442 -25.01953,-12.71484 l -3.70118,-0.75195 h -47.88281 z m 5.58985,5.625 h 45.25195 47.31641 l 3.15039,0.63867 c 8.89946,1.80374 16.41733,5.63625 22.22851,11.25 6.73276,6.50404 9.95813,14.38634 10.40235,25.9375 0.39837,10.35892 -2.55122,18.60677 -8.65235,24.76758 -2.90794,2.93639 -5.14284,4.32001 -11.83984,7.24609 -1.64633,0.71933 -3.158,1.39327 -4.27734,1.89844 -0.37486,0.16917 -0.62794,0.28429 -0.89258,0.40625 l -6.03906,2.7832 6.20312,2.39453 c 0.21868,0.0845 0.44666,0.17709 0.81641,0.3125 1.17703,0.43109 2.79237,0.99397 4.59179,1.59375 9.86174,3.28708 14.02617,5.56977 18.81836,10.18946 4.02032,3.87559 7.21197,8.85411 8.85938,13.76172 1.70843,5.08933 2.44822,12.28974 1.84179,18.48437 -1.10851,11.32319 -4.41396,18.59087 -11.62109,25.74219 -6.55549,6.50475 -14.16678,10.46043 -23.76758,12.3164 l -3.21289,0.6211 -99.2207,0.1914 v -2.36328 -0.008 c -0.0156,-2.47509 -0.0282,-6.01608 -0.0352,-10.35742 -0.0147,-8.68384 -0.0128,-20.57095 0.01,-33.5625 l 0.0781,-44.95313 15.92578,-0.0684 c 5.01662,-0.0212 9.57602,-0.0559 12.88868,-0.0957 1.65492,-0.0199 2.9983,-0.0393 3.9414,-0.0606 h 0.004 0.002 c 0.22165,-0.005 0.32496,-0.0104 0.45117,-0.0137 l 5.73047,-0.14648 -3.62304,-4.44336 c -0.2186,-0.26813 -0.44333,-0.54388 -0.78516,-0.95899 -0.89921,-1.09195 -2.19622,-2.6596 -3.79688,-4.58593 -3.20034,-3.85153 -7.61151,-9.14154 -12.46484,-14.94336 -4.8512,-5.79927 -9.33681,-11.17008 -12.65234,-15.15235 -1.6581,-1.99151 -3.02607,-3.63626 -3.99805,-4.81054 -0.48351,-0.58416 -0.86712,-1.05383 -1.14648,-1.39453 -0.28048,-0.34207 -0.45391,-0.56088 -0.42188,-0.51758 -0.13575,-0.18362 -0.036,-0.0426 -0.0156,0.0293 -0.006,-0.0223 -0.0658,-0.33029 -0.0996,-1.10546 -0.0668,-1.53292 -0.0528,-4.66726 -0.0137,-10.87305 z"
       id="path8623"
       inkscape:connector-curvature="0" />
    <path
       style="color:#000000;font-style:normal;font-variant:normal;font-weight:normal;font-stretch:normal;font-size:medium;line-height:normal;font-family:sans-serif;font-variant-ligatures:normal;font-variant-position:normal;font-variant-caps:normal;font-variant-numeric:normal;font-variant-alternates:normal;font-feature-settings:normal;text-indent:0;text-align:start;text-decoration:none;text-decoration-line:none;text-decoration-style:solid;text-decoration-color:#000000;letter-spacing:normal;word-spacing:normal;text-transform:none;writing-mode:lr-tb;direction:ltr;text-orientation:mixed;dominant-baseline:auto;baseline-shift:baseline;text-anchor:start;white-space:normal;shape-padding:0;clip-rule:nonzero;display:inline;overflow:visible;visibility:visible;opacity:1;isolation:auto;mix-blend-mode:normal;color-interpolation:sRGB;color-interpolation-filters:linearRGB;solid-color:#000000;solid-opacity:1;vector-effect:none;fill:none;fill-opacity:1;fill-rule:nonzero;stroke:#000000;stroke-width:0.1875;stroke-linecap:butt;stroke-linejoin:miter;stroke-miterlimit:4;stroke-dasharray:none;stroke-dashoffset:0;stroke-opacity:1;color-rendering:auto;image-rendering:auto;shape-rendering:auto;text-rendering:auto;enable-background:accumulate"
       d="m 236.0918,883.21094 -0.53711,0.002 -36.8086,0.0957 -0.0859,29.02735 -0.0859,29.0625 39.55664,-0.0937 36.66602,-0.0879 2.81835,-0.76758 0.16602,-0.0469 -0.0117,0.002 c 8.51112,-2.31717 16.41197,-8.2649 20.08594,-15.54297 4.41063,-8.73742 3.81817,-19.5308 -1.55078,-27.63086 -1.8603,-2.80661 -5.22449,-6.22653 -8.03321,-8.24219 -4.13217,-2.96545 -9.27154,-4.81882 -14.875,-5.49805 -1.6141,-0.19565 -4.51498,-0.22633 -10.46289,-0.26757 -5.95026,-0.0412 -14.67158,-0.0436 -26.84179,-0.0117 z m 0.0156,5.625 h 0.002 c 12.16101,-0.0319 20.87191,-0.0293 26.78515,0.0117 5.91605,0.041 9.21232,0.1541 9.82617,0.22851 4.79229,0.5809 9.03845,2.16364 12.26953,4.48242 1.90521,1.36726 5.4726,5.03968 6.62696,6.78125 4.17834,6.30382 4.67798,15.12977 1.21679,21.98633 -2.70539,5.35935 -9.62949,10.77067 -16.54101,12.65235 h -0.006 l -0.16211,0.0449 -2.08594,0.56836 -35.91992,0.0879 -33.9043,0.082 0.0703,-23.41016 0.0703,-23.43359 z"
       id="path8627"
       inkscape:connector-curvature="0" />
    <path
       style="color:#000000;font-style:normal;font-variant:normal;font-weight:normal;font-stretch:normal;font-size:medium;line-height:normal;font-family:sans-serif;font-variant-ligatures:normal;font-variant-position:normal;font-variant-caps:normal;font-variant-numeric:normal;font-variant-alternates:normal;font-feature-settings:normal;text-indent:0;text-align:start;text-decoration:none;text-decoration-line:none;text-decoration-style:solid;text-decoration-color:#000000;letter-spacing:normal;word-spacing:normal;text-transform:none;writing-mode:lr-tb;direction:ltr;text-orientation:mixed;dominant-baseline:auto;baseline-shift:baseline;text-anchor:start;white-space:normal;shape-padding:0;clip-rule:nonzero;display:inline;overflow:visible;visibility:visible;opacity:1;isolation:auto;mix-blend-mode:normal;color-interpolation:sRGB;color-interpolation-filters:linearRGB;solid-color:#000000;solid-opacity:1;vector-effect:none;fill:none;fill-opacity:1;fill-rule:nonzero;stroke:#000000;stroke-width:0.1875;stroke-linecap:butt;stroke-linejoin:miter;stroke-miterlimit:4;stroke-dasharray:none;stroke-dashoffset:0;stroke-opacity:1;color-rendering:auto;image-rendering:auto;shape-rendering:auto;text-rendering:auto;enable-background:accumulate"
       d="m 212.26172,813.625 -2.80078,0.01 v 0.0117 c -1.45481,0.01 -3.13998,0.0175 -4.12891,0.0312 -0.82667,0.0115 -1.47422,0.0237 -1.95703,0.0391 -0.86989,0.0202 -2.08612,-0.0796 -3.21875,1.47265 -0.56961,0.78067 -0.69681,1.91977 -0.5332,2.65039 0.16361,0.73062 0.46156,1.18868 0.75586,1.58594 l 0.002,0.004 0.002,0.002 c 0.20858,0.28017 0.48523,0.63937 0.8418,1.09375 0.7117,0.90693 1.73164,2.18222 2.99414,3.74805 2.5256,3.1324 6.0206,7.4222 9.88672,12.14062 7.73251,9.43717 16.93997,20.57455 22.80078,27.52735 l 3.10547,3.68554 14.66211,-0.125 c 6.25203,-0.0533 9.54971,-0.085 11.7207,-0.19531 2.17837,-0.11063 3.42549,-0.36944 4.65235,-0.71484 9.07901,-2.55615 15.89727,-8.71972 18.71093,-17.18555 4.67816,-14.07581 -2.46183,-29.0989 -16.25586,-33.92969 -2.20169,-0.77104 -3.90784,-1.34936 -8.66211,-1.55859 -4.7448,-0.20882 -12.99363,-0.22276 -30.04882,-0.2832 -8.74375,-0.031 -16.71791,-0.0325 -22.5293,-0.01 z m 0.0234,5.625 c 5.79013,-0.0227 13.75399,-0.0212 22.48632,0.01 17.05765,0.0604 25.35847,0.0828 29.82227,0.27929 4.45433,0.19603 4.76128,0.44498 7.04883,1.2461 10.96479,3.83996 16.54933,15.4925 12.77539,26.84765 -2.23124,6.71343 -7.32417,11.41353 -14.89453,13.54492 -1.08389,0.30516 -1.4943,0.41423 -3.41406,0.51172 -1.92713,0.0979 -5.2339,0.13422 -11.48243,0.1875 l -12.01757,0.10157 -1.40235,-1.66211 c -5.82379,-6.90889 -15.02969,-18.04649 -22.75,-27.46875 -3.86028,-4.71131 -7.35056,-8.99389 -9.85937,-12.10547 -0.4948,-0.61368 -0.74828,-0.93837 -1.16211,-1.45508 1.43802,-0.014 2.80777,-0.029 4.84961,-0.0371 z m -8.5293,0.084 c -0.22365,0.0746 -0.32134,0.008 -0.22266,0.006 l 0.01,-0.002 h 0.01 c 0.0446,-0.001 0.15318,-0.003 0.20313,-0.004 z"
       id="path8631"
       inkscape:connector-curvature="0" />
    <path
       style="color:#000000;font-style:normal;font-variant:normal;font-weight:normal;font-stretch:normal;font-size:medium;line-height:normal;font-family:sans-serif;font-variant-ligatures:normal;font-variant-position:normal;font-variant-caps:normal;font-variant-numeric:normal;font-variant-alternates:normal;font-feature-settings:normal;text-indent:0;text-align:start;text-decoration:none;text-decoration-line:none;text-decoration-style:solid;text-decoration-color:#000000;letter-spacing:normal;word-spacing:normal;text-transform:none;writing-mode:lr-tb;direction:ltr;text-orientation:mixed;dominant-baseline:auto;baseline-shift:baseline;text-anchor:start;white-space:normal;shape-padding:0;clip-rule:nonzero;display:inline;overflow:visible;visibility:visible;opacity:1;isolation:auto;mix-blend-mode:normal;color-interpolation:sRGB;color-interpolation-filters:linearRGB;solid-color:#000000;solid-opacity:1;vector-effect:none;fill:none;fill-opacity:1;fill-rule:nonzero;stroke:#000000;stroke-width:0.1875;stroke-linecap:butt;stroke-linejoin:miter;stroke-miterlimit:4;stroke-dasharray:none;stroke-dashoffset:0;stroke-opacity:1;color-rendering:auto;image-rendering:auto;shape-rendering:auto;text-rendering:auto;enable-background:accumulate"
       d="m 343.19922,744.54883 c -2.31043,0 -3.65491,0.007 -4.70313,0.0977 -0.49491,0.0426 -1.05609,0.0973 -1.71484,0.34961 -1.00308,0.38413 -1.70545,0.88803 -2.19141,2.1543 -0.10713,0.27905 -0.29218,1.49319 -0.19531,0.76758 l -0.002,0.0117 -0.002,0.0117 c -0.0162,0.1299 -0.0201,0.19802 -0.0156,0.15039 l -0.002,0.0332 -0.004,0.0332 c -0.007,0.1062 -0.007,0.16416 -0.01,0.21094 l -0.002,0.0117 v 0.01 c -0.006,0.13736 -0.0124,0.32331 -0.0176,0.55469 -0.0106,0.45171 -0.0186,1.0689 -0.0273,1.86524 -0.0176,1.59893 -0.0329,3.90167 -0.0469,6.8164 -0.028,5.82981 -0.0494,14.10312 -0.0645,24.00782 -0.03,19.80931 -0.0355,46.14284 -0.0195,72.46875 0.016,26.32589 0.0533,52.64326 0.10742,72.42187 0.027,9.8894 0.0587,18.14449 0.0937,23.95117 0.0175,2.90301 0.0351,5.19316 0.0547,6.7793 0.01,0.79015 0.0185,1.40281 0.0293,1.84766 0.005,0.21986 0.0103,0.39504 0.0176,0.55078 l 0.002,0.006 v 0.006 c 0.004,0.0768 0.007,0.16325 0.0176,0.27148 0.003,0.0369 0.0153,0.13507 0.0293,0.22656 0.0758,0.49459 0.082,0.37396 0.0977,0.42578 0.0156,0.0518 0.0264,0.0863 0.0371,0.11914 0.0107,0.0329 0.0208,0.061 0.0293,0.0859 0.004,0.0125 0.006,0.0239 0.0117,0.0391 0.003,0.008 0.005,0.0138 0.0117,0.0312 0.003,0.009 0.006,0.02 0.0156,0.0449 0.009,0.0249 0.14644,0.32219 0.14648,0.32226 l 0.004,0.006 0.002,0.006 c 0.48702,0.91016 1.02506,1.47993 2.24024,1.89648 0.77822,0.26678 1.42769,0.30521 2.19336,0.34766 1.57769,0.0875 4.08722,0.0859 8.95703,0.0859 4.49906,0 7.03105,-0.0106 8.6289,-0.084 0.78943,-0.0362 1.37586,-0.0708 2.04297,-0.22656 0.30302,-0.0707 0.81854,-0.22032 1.32031,-0.53906 0.70865,-0.45024 1.10805,-0.89586 1.43555,-1.74805 0.0164,-0.0474 0.0785,-0.22492 0.0899,-0.26367 0.0129,-0.0439 -0.0134,0.23127 0.0898,-0.38867 0.0276,-0.17553 0.0443,-0.36636 0.0293,-0.2168 v -0.002 c 0.007,-0.0726 0.0122,-0.14224 0.0137,-0.16797 0.003,-0.0502 0.005,-0.10832 0.008,-0.17383 V 959.75 l 0.002,-0.0156 c 0.003,-0.10296 0.006,-0.25774 0.01,-0.45508 0.006,-0.37543 0.0116,-0.90366 0.0176,-1.58789 0.0119,-1.36863 0.0242,-3.36255 0.0352,-5.91797 0.0218,-5.10979 0.0401,-12.45965 0.0566,-21.51172 0.033,-18.10459 0.0547,-43.00987 0.0547,-70.3457 V 759.33008 l -2.94726,-3.57227 v -0.002 c -1.18137,-1.43204 -3.49535,-4.28326 -5.10157,-6.28906 l -3.9375,-4.91797 z m 0,5.625 h 4.22656 l 2.24805,2.80859 c 1.62702,2.03178 3.93422,4.87457 5.15429,6.35352 l 1.66016,2.01367 v 98.56641 c 0,27.33286 -0.0217,52.2343 -0.0547,70.33398 -0.0165,9.05004 -0.0349,16.39983 -0.0566,21.5 -0.0109,2.54956 -0.0234,4.539 -0.0352,5.89453 -8.7e-4,0.10051 -0.001,0.13499 -0.002,0.22852 -1.37124,0.0557 -3.73867,0.0762 -8.06054,0.0762 -4.61999,0 -6.92257,-0.0157 -8.20703,-0.0742 -0.004,-0.24776 -0.006,-0.38615 -0.01,-0.68945 -0.0192,-1.56137 -0.0372,-3.84631 -0.0547,-6.74414 -0.035,-5.79499 -0.0668,-14.04572 -0.0937,-23.93164 -0.0541,-19.77203 -0.0914,-46.0873 -0.10742,-72.41016 -0.016,-26.32284 -0.0105,-52.65423 0.0195,-72.45703 0.0151,-9.90137 0.0365,-18.17031 0.0645,-23.98828 0.014,-2.90915 0.0295,-5.20584 0.0469,-6.78125 0.003,-0.2802 0.007,-0.4052 0.01,-0.63867 0.73329,-0.0308 1.49363,-0.0606 3.25195,-0.0606 z"
       id="path8635"
       inkscape:connector-curvature="0" />
    <path
       style="color:#000000;font-style:normal;font-variant:normal;font-weight:normal;font-stretch:normal;font-size:medium;line-height:normal;font-family:sans-serif;font-variant-ligatures:normal;font-variant-position:normal;font-variant-caps:normal;font-variant-numeric:normal;font-variant-alternates:normal;font-feature-settings:normal;text-indent:0;text-align:start;text-decoration:none;text-decoration-line:none;text-decoration-style:solid;text-decoration-color:#000000;letter-spacing:normal;word-spacing:normal;text-transform:none;writing-mode:lr-tb;direction:ltr;text-orientation:mixed;dominant-baseline:auto;baseline-shift:baseline;text-anchor:start;white-space:normal;shape-padding:0;clip-rule:nonzero;display:inline;overflow:visible;visibility:visible;opacity:1;isolation:auto;mix-blend-mode:normal;color-interpolation:sRGB;color-interpolation-filters:linearRGB;solid-color:#000000;solid-opacity:1;vector-effect:none;fill:none;fill-opacity:1;fill-rule:nonzero;stroke:#000000;stroke-width:0.1875;stroke-linecap:butt;stroke-linejoin:miter;stroke-miterlimit:4;stroke-dasharray:none;stroke-dashoffset:0;stroke-opacity:1;color-rendering:auto;image-rendering:auto;shape-rendering:auto;text-rendering:auto;enable-background:accumulate"
       d="m 388.79492,830.65039 -2.81445,0.002 c -2.45105,0.002 -4.90276,0.0292 -6.82227,0.082 -0.96191,0.0264 -1.7846,0.0591 -2.43945,0.10156 -0.31904,0.0206 -0.6024,0.0415 -0.90039,0.0781 0.13232,-0.0163 -0.88594,0.10888 -1.5,0.4375 h -0.002 v 0.002 c -0.72489,0.38817 -1.08819,0.62793 -1.58985,1.63476 -0.30626,0.6147 -0.40176,1.19506 -0.45898,1.6211 -0.12381,0.92203 -0.1655,2.05923 -0.20313,4.18554 -0.0753,4.25647 -0.0763,12.35676 -0.0762,28.25196 1.4e-4,17.01965 0.0172,26.10573 0.19922,31.83984 0.18206,5.73567 0.56632,8.28112 1.2207,11.52539 5.56516,27.59073 28.43166,48.88924 56.5,52.66797 4.18744,0.56372 11.58376,0.64029 15.81055,0.16797 15.55827,-1.7385 29.74885,-8.79266 40.72852,-20.22071 10.20302,-10.61968 16.47281,-24.21735 18.14062,-39.25 0.0853,-0.76925 0.10552,-1.72327 0.14258,-3.34961 0.0371,-1.63014 0.0689,-3.79949 0.0957,-6.41211 0.0536,-5.2254 0.084,-12.22456 0.084,-20.1621 10e-4,-12.46105 -0.006,-19.17833 -0.0762,-22.94727 -0.035,-1.88426 -0.0816,-3.02313 -0.17382,-3.90039 -0.0945,-0.89869 -0.28607,-1.82148 -0.85743,-2.64258 -0.84062,-1.208 -2.90684,-3.69238 -5.1582,-6.41211 -1.12751,-1.36206 -2.24474,-2.69599 -3.12695,-3.73437 -0.43908,-0.5168 -0.81856,-0.96157 -1.12891,-1.31446 -0.27688,-0.31484 -0.47076,-0.5694 -0.88476,-0.92578 -0.88643,-0.76299 -2.06535,-1.10855 -3.16797,-1.21679 -1.03506,-0.10165 -2.25836,-0.10749 -4.29688,-0.10547 -1.33409,0.001 -2.5832,0.0289 -3.56836,0.0742 -0.49586,0.0228 -0.92091,0.0498 -1.29101,0.0859 h -0.002 c -0.17003,0.0167 -0.34807,0.0338 -0.58203,0.0742 0.46776,-0.0809 -0.85481,0.18127 -1.38281,0.51563 -0.36695,0.23328 -0.79448,0.62364 -1.07031,1.08008 -0.27583,0.45643 -0.39655,0.89634 -0.25977,0.54687 -0.0879,0.22451 -0.15449,0.4797 -0.18164,0.60742 -0.0534,0.25104 -0.0787,0.46877 -0.0996,0.67188 v 0.002 c -0.0431,0.41916 -0.0695,0.8822 -0.0957,1.49609 -0.0529,1.23835 -0.0947,3.06446 -0.13086,5.6836 -0.0723,5.23784 -0.11954,13.61407 -0.16016,26.36523 -0.098,30.75648 -0.1691,33.46623 -0.59179,35.6836 -3.13407,16.44054 -14.88247,28.39921 -31.01172,31.63476 -3.22237,0.64642 -10.23281,0.7092 -13.62695,0.10156 -7.8864,-1.41184 -14.79384,-5.02812 -20.6211,-10.8164 -5.54871,-5.51157 -8.73126,-11.20448 -10.73437,-19.29492 -0.29456,-1.18976 -0.37221,-1.4055 -0.47266,-6.06446 -0.10037,-4.6553 -0.14722,-13.28728 -0.22852,-30.14062 -0.0727,-15.0818 -0.1275,-23.69616 -0.21484,-28.61914 v -0.002 c -0.0436,-2.45927 -0.0935,-3.98505 -0.16797,-5.02929 -0.0369,-0.51775 -0.0747,-0.93042 -0.16406,-1.37696 0.0165,0.0829 0.0233,-0.21754 -0.2207,-0.83007 -0.24406,-0.61254 -0.84991,-1.30473 -1.39063,-1.64649 -0.44392,-0.28055 -1.39881,-0.52343 -1.18164,-0.47656 h -0.002 c -0.19676,-0.0424 -0.35777,-0.065 -0.49219,-0.082 h -0.002 c -0.29092,-0.0366 -0.57272,-0.0575 -0.89258,-0.0781 h -0.002 c -0.64652,-0.0416 -1.46103,-0.0729 -2.41602,-0.0976 -1.11728,-0.0291 -2.60607,-0.0303 -3.98633,-0.041 z m -2.81054,5.62695 c 2.41381,-0.002 4.8292,0.0209 6.65234,0.0684 0.54563,0.0142 0.89898,0.0341 1.32031,0.0527 0.0482,0.87 0.0941,1.9717 0.13086,4.04297 0.086,4.84804 0.14215,13.4675 0.21484,28.54687 0.0813,16.85424 0.12575,25.46752 0.22852,30.23438 0.10269,4.76319 0.31865,6.01019 0.63672,7.29492 2.19851,8.87962 6.0403,15.78681 12.23047,21.93554 6.58363,6.5396 14.6143,10.75381 23.59375,12.36133 4.54989,0.81455 11.28067,0.76842 15.72461,-0.12304 18.26448,-3.66389 31.90307,-17.57545 35.43359,-36.09571 0.55361,-2.90413 0.59144,-5.95675 0.68945,-36.71875 0.0406,-12.74502 0.0885,-21.11778 0.16016,-26.30664 0.034,-2.45752 0.0761,-4.09673 0.12109,-5.23242 0.82799,-0.0322 1.81147,-0.0577 2.92188,-0.0586 2.00778,-0.002 3.18058,0.023 3.74219,0.0781 0.14457,0.0142 0.12969,0.0117 0.16796,0.0156 0.0361,0.041 0.0199,0.0247 0.2129,0.24414 0.26594,0.30239 0.63458,0.73197 1.0664,1.24023 0.85959,1.01176 1.96567,2.33345 3.08008,3.67969 2.16733,2.61823 4.39049,5.40015 4.73047,5.86328 0.006,0.0402 0.007,0.0356 0.0234,0.19531 0.056,0.53242 0.10862,1.5907 0.14257,3.41602 0.0681,3.65026 0.0772,10.38332 0.0762,22.8418 0,7.92307 -0.0307,14.90765 -0.084,20.10351 -0.0266,2.59801 -0.0594,4.7511 -0.0957,6.3418 -0.0363,1.5945 -0.0905,2.70457 -0.10742,2.85742 -1.53904,13.87195 -7.26322,26.2489 -16.60547,35.97266 -10.10734,10.52009 -23.02878,16.93475 -37.29883,18.52929 -3.31653,0.3706 -11.17605,0.28646 -14.43555,-0.15234 -25.69635,-3.45939 -46.64935,-22.9967 -51.73437,-48.20703 -0.6313,-3.12983 -0.93897,-5.03873 -1.11524,-10.5918 -0.17632,-5.55465 -0.19517,-14.64445 -0.19531,-31.66015 -10e-5,-15.89469 0.003,-24.02236 0.0762,-28.15235 0.0256,-1.44687 0.0683,-1.89393 0.10743,-2.47461 0.46255,-0.0224 0.8941,-0.0473 1.51757,-0.0645 1.8386,-0.0506 4.25649,-0.0761 6.66993,-0.0781 z"
       id="path8639"
       inkscape:connector-curvature="0" />
    <path
       style="color:#000000;font-style:normal;font-variant:normal;font-weight:normal;font-stretch:normal;font-size:medium;line-height:normal;font-family:sans-serif;font-variant-ligatures:normal;font-variant-position:normal;font-variant-caps:normal;font-variant-numeric:normal;font-variant-alternates:normal;font-feature-settings:normal;text-indent:0;text-align:start;text-decoration:none;text-decoration-line:none;text-decoration-style:solid;text-decoration-color:#000000;letter-spacing:normal;word-spacing:normal;text-transform:none;writing-mode:lr-tb;direction:ltr;text-orientation:mixed;dominant-baseline:auto;baseline-shift:baseline;text-anchor:start;white-space:normal;shape-padding:0;clip-rule:nonzero;display:inline;overflow:visible;visibility:visible;opacity:1;isolation:auto;mix-blend-mode:normal;color-interpolation:sRGB;color-interpolation-filters:linearRGB;solid-color:#000000;solid-opacity:1;vector-effect:none;fill:none;fill-opacity:1;fill-rule:nonzero;stroke:#000000;stroke-width:0.1875;stroke-linecap:butt;stroke-linejoin:miter;stroke-miterlimit:4;stroke-dasharray:none;stroke-dashoffset:0;stroke-opacity:1;color-rendering:auto;image-rendering:auto;shape-rendering:auto;text-rendering:auto;enable-background:accumulate"
       d="m 586.25,830.90625 -5.3125,0.0488 c -3.2564,0.0301 -6.46902,0.17867 -8.7168,0.49219 -14.29394,1.99365 -27.36699,8.55646 -37.72265,18.91211 -10.66941,10.66941 -17.19732,23.99063 -19.10352,38.98437 -0.58953,4.6371 -0.51249,12.66613 0.16992,17.25586 2.07175,13.93345 8.16681,26.435 17.83008,36.54297 5.42739,5.67714 11.32336,9.97087 18.67578,13.62304 6.61291,3.28487 12.83374,5.20743 20.44727,6.33204 l 9.90625,1.46289 -1.05078,-1.05078 c 3.23345,0.0451 6.43492,-0.0117 8.5332,-0.26563 7.26837,-0.87977 13.66297,-2.70021 19.80859,-5.66602 4.26283,-2.05719 6.58369,-3.4702 10.36524,-6.31445 0.96682,-0.72719 1.69929,-1.3168 2.31445,-1.92383 0.30383,-0.29981 0.62164,-0.6404 0.91406,-1.0957 0.23593,-0.36737 0.79407,-1.4841 0.59766,-2.68164 -0.0843,-0.51435 -0.6679,-1.61405 -0.42969,-1.19336 -0.089,-0.15701 -0.1693,-0.27977 -0.23828,-0.38281 -0.14618,-0.21852 -0.30429,-0.43676 -0.49219,-0.68945 -0.37687,-0.50683 -0.87199,-1.14334 -1.45898,-1.88477 -1.17502,-1.48418 -2.71849,-3.38175 -4.2832,-5.27539 -1.56437,-1.89321 -3.14469,-3.77724 -4.39844,-5.23242 -0.62856,-0.72953 -1.17427,-1.34782 -1.60742,-1.82227 -0.21413,-0.23454 -0.40101,-0.43588 -0.59375,-0.62891 0.031,0.031 -0.51379,-0.52927 -1.04297,-0.8125 -0.97088,-0.51958 -1.94766,-0.47239 -2.54102,-0.35742 -0.54758,0.10625 -1.00079,0.29559 -1.375,0.47657 -0.75266,0.36398 -1.46017,0.82329 -2.36523,1.44531 -4.14165,2.84639 -9.80674,5.17932 -14.91211,6.12109 -2.91555,0.53785 -10.70344,0.5118 -13.48828,-0.0273 -9.91117,-1.91892 -17.63751,-6.56094 -23.70117,-14.19141 -3.43447,-4.32193 -5.45057,-8.52354 -7.20508,-15.20703 -1.51176,-5.75897 -1.78317,-8.32136 -1.39063,-12.62305 0.0547,-0.59962 0.20977,-1.43788 0.3125,-2.1914 1.43132,1.7362 2.02176,2.4602 4.10938,4.98633 l 8.30859,10.05273 h 45.34766 47.05078 l 0.13281,-8.50195 c 0.16668,-10.60812 -1.93414,-20.06175 -6.57226,-29.56446 -9.78524,-20.0482 -29.37007,-34.04533 -51.45899,-36.76953 -0.90494,-0.11161 -2.36312,-0.082 -3.52734,-0.13672 z m -46.57625,47.98428 -1.39844,4.95118 c -0.0302,0.10696 -0.0872,0.29645 -0.15039,0.55859 -0.16674,0.69262 -0.33844,1.54471 -0.50977,2.49023 -0.3432,1.89413 -0.67376,4.11932 -0.83398,5.875 -0.43886,4.80934 -0.0344,8.52581 1.55078,14.56446 1.8838,7.17597 4.34635,12.37235 8.24414,17.27734 6.84035,8.60785 15.96449,14.07182 27.03321,16.21485 4.22335,0.81763 11.28899,0.8264 15.57812,0.0352 5.97073,-1.1014 12.17693,-3.64588 17.08008,-7.01562 0.46139,-0.3171 0.63299,-0.40257 0.92187,-0.57813 0.33761,0.37676 0.688,0.7713 1.1543,1.3125 1.21281,1.40766 2.77825,3.27163 4.32422,5.14258 1.54561,1.87053 3.07322,3.75095 4.20898,5.18555 0.34151,0.43136 0.5539,0.71499 0.8125,1.05078 -0.30898,0.25909 -0.49637,0.43957 -0.99218,0.8125 -3.63304,2.73255 -5.33142,3.7673 -9.42774,5.74414 -5.5889,2.69714 -11.29131,4.32973 -18.03906,5.14648 -2.65193,0.321 -11.09826,0.27674 -14.6875,-0.0762 l -1.75977,-0.17383 c -6.85432,-1.06172 -12.23283,-2.71307 -18.20898,-5.68164 -6.86275,-3.40894 -12.10495,-7.2319 -17.11328,-12.4707 -8.88371,-9.29253 -14.42529,-20.64753 -16.33399,-33.48438 -0.53022,-3.56617 -0.61262,-12.08097 -0.15039,-15.71679 1.75747,-13.82383 7.66596,-25.88665 17.49805,-35.71875 9.52536,-9.52534 21.43294,-15.49256 34.52344,-17.31836 1.72272,-0.24029 4.886,-0.40881 7.99023,-0.4375 l 8e-5,7e-5 c 3.10347,-0.0287 6.2566,0.0837 7.9375,0.29101 20.16083,2.48641 38.15396,15.34422 47.0918,33.65625 4.29403,8.79773 6.1564,17.17604 6.00195,27.00586 l -0.0469,2.9668 h -41.51172 -42.69922 l -6.6211,-8.00977 c -4.02001,-4.86444 -5.96007,-7.14691 -6.14528,-7.3783 m -6.11445,1.34705 0.002,0.002 c 4.1e-4,5.1e-4 0.005,0.007 0.006,0.008 l -0.01,0.002 c 0.22668,0.25566 0.13401,0.15081 0.002,-0.0117 z"
       id="path8643"
       inkscape:connector-curvature="0"
       sodipodi:nodetypes="cccsscccccccccccccccccccccccccccccccccccccccccccccccscccccccsccccsccccccccccccccacccca" />
    <path
       style="color:#000000;font-style:normal;font-variant:normal;font-weight:normal;font-stretch:normal;font-size:medium;line-height:normal;font-family:sans-serif;font-variant-ligatures:normal;font-variant-position:normal;font-variant-caps:normal;font-variant-numeric:normal;font-variant-alternates:normal;font-feature-settings:normal;text-indent:0;text-align:start;text-decoration:none;text-decoration-line:none;text-decoration-style:solid;text-decoration-color:#000000;letter-spacing:normal;word-spacing:normal;text-transform:none;writing-mode:lr-tb;direction:ltr;text-orientation:mixed;dominant-baseline:auto;baseline-shift:baseline;text-anchor:start;white-space:normal;shape-padding:0;clip-rule:nonzero;display:inline;overflow:visible;visibility:visible;opacity:1;isolation:auto;mix-blend-mode:normal;color-interpolation:sRGB;color-interpolation-filters:linearRGB;solid-color:#000000;solid-opacity:1;vector-effect:none;fill:none;fill-opacity:1;fill-rule:nonzero;stroke:#000000;stroke-width:0.1875;stroke-linecap:butt;stroke-linejoin:miter;stroke-miterlimit:4;stroke-dasharray:none;stroke-dashoffset:0;stroke-opacity:1;color-rendering:auto;image-rendering:auto;shape-rendering:auto;text-rendering:auto;enable-background:accumulate"
       d="m 544.99531,885.11193 c 1.62171,0.04 3.41043,0.0617 6.65315,0.0874 6.4845,0.0512 16.31402,0.0762 29.75195,0.0762 11.05609,0 20.88717,-0.0291 27.96094,-0.0762 3.53643,-0.0235 6.38105,-0.0503 8.35937,-0.082 0.991,-0.0159 1.75964,-0.0344 2.30664,-0.0527 h 0.002 0.002 c 0.27252,-0.009 0.4894,-0.0172 0.69531,-0.0312 h 0.002 l 0.004,-0.002 c 0.049,-0.003 0.16226,-0.005 0.36719,-0.0332 l 0.01,-0.002 0.01,-0.002 c 0.0571,-0.008 0.30048,-0.0526 0.44336,-0.0918 l 0.0117,-0.004 0.0137,-0.004 c -0.18723,0.0533 0.41893,-0.13219 0.69531,-0.2832 l 0.002,-0.002 c 0.58524,-0.32023 0.41652,-0.27267 0.47656,-0.32032 0.03,-0.0238 0.0533,-0.043 0.0723,-0.0586 0.01,-0.008 0.0192,-0.0147 0.0273,-0.0215 l 0.004,-0.004 c 0,0 0.004,-0.003 0.01,-0.008 0.003,-0.003 0.005,-0.006 0.0137,-0.0137 l 0.26563,-0.25586 0.008,-0.01 c 0,0 0.51528,-0.82722 0.51953,-0.83789 0.004,-0.0107 0.006,-0.0137 0.008,-0.0176 0.003,-0.008 0.005,-0.0135 0.008,-0.0195 0.005,-0.012 0.009,-0.0263 0.0156,-0.043 0.0128,-0.0333 0.0284,-0.0761 0.0449,-0.11914 0.0166,-0.043 0.0342,-0.0861 0.0469,-0.11914 0.006,-0.0165 0.0113,-0.0297 0.0156,-0.041 10e-4,-0.003 0.003,-0.005 0.004,-0.008 0,0 -4.5e-4,-0.003 0,-0.004 -6.4e-4,-0.58791 -0.19535,-2.6599 -0.082,-2.36914 -0.0728,-0.18676 -0.15068,-0.35573 -0.23047,-0.52148 -0.15766,-0.3272 -0.33919,-0.66709 -0.55078,-1.05274 -0.42786,-0.77985 -0.98591,-1.74355 -1.59961,-2.76953 -1.22665,-2.05065 -2.62222,-4.28174 -3.61719,-5.66797 -2.51496,-3.50396 -7.23084,-8.07194 -10.81055,-10.46874 -5.187,-3.47301 -11.06952,-5.90499 -17.24609,-7.13868 -2.43759,-0.48688 -5.523,-0.66454 -8.66016,-0.63281 l -0.002,9.6e-4 -2.17187,0.0215 -0.0449,0.18359 c -2.30091,0.10701 -4.66085,0.20324 -6.50391,0.59765 -10.92363,2.33769 -20.7081,8.50974 -27.1582,17.20899 -1.04143,1.40459 -2.44706,3.64497 -3.69141,5.73242 -0.62185,1.0432 -1.34595,2.247 -1.78306,3.05853 m 41.41195,-21.17768 c 2.86176,-0.029 5.74841,0.17358 7.5,0.52344 5.4551,1.08959 10.65739,3.24278 15.21875,6.29687 2.56179,1.71526 7.56465,6.56208 9.36914,9.07618 0.7614,1.06081 2.1818,3.30481 3.35937,5.27343 0.14027,0.23449 0.22468,0.39188 0.35742,0.61719 -1.91361,0.0277 -4.35492,0.0528 -7.56835,0.0742 -7.05457,0.0469 -16.87569,0.0762 -27.92188,0.0762 -13.43093,0 -23.25492,-0.0252 -29.70898,-0.0762 -2.63185,-0.0208 -4.32999,-0.0504 -5.85157,-0.0801 0.16433,-0.28175 0.27232,-0.48644 0.44922,-0.7832 1.18654,-1.99047 2.6279,-4.24687 3.37891,-5.25977 5.58215,-7.52865 14.2073,-13.00459 23.81445,-15.06055 1.82704,-0.39098 4.74129,-0.64882 7.60352,-0.67773 z"
       id="path8647"
       inkscape:connector-curvature="0"
       sodipodi:nodetypes="ccscccccccccccccccccccccccccccccccccccccccccccccccccscccccsccccccc" />
    <path
       style="color:#000000;font-style:normal;font-variant:normal;font-weight:normal;font-stretch:normal;font-size:medium;line-height:normal;font-family:sans-serif;font-variant-ligatures:normal;font-variant-position:normal;font-variant-caps:normal;font-variant-numeric:normal;font-variant-alternates:normal;font-feature-settings:normal;text-indent:0;text-align:start;text-decoration:none;text-decoration-line:none;text-decoration-style:solid;text-decoration-color:#000000;letter-spacing:normal;word-spacing:normal;text-transform:none;writing-mode:lr-tb;direction:ltr;text-orientation:mixed;dominant-baseline:auto;baseline-shift:baseline;text-anchor:start;white-space:normal;shape-padding:0;clip-rule:nonzero;display:inline;overflow:visible;visibility:visible;opacity:1;isolation:auto;mix-blend-mode:normal;color-interpolation:sRGB;color-interpolation-filters:linearRGB;solid-color:#000000;solid-opacity:1;vector-effect:none;fill:none;fill-opacity:1;fill-rule:nonzero;stroke:#000000;stroke-width:0.1875;stroke-linecap:butt;stroke-linejoin:miter;stroke-miterlimit:4;stroke-dasharray:none;stroke-dashoffset:0;stroke-opacity:1;color-rendering:auto;image-rendering:auto;shape-rendering:auto;text-rendering:auto;enable-background:accumulate"
       d="m 644.37109,777.69922 -0.32617,0.28516 c -0.30392,0.11676 -0.6098,0.23666 -0.93359,0.48242 -0.70456,0.53491 -1.07799,1.21591 -1.27149,1.65234 -0.38394,0.86589 -0.51279,1.60055 -0.72265,2.63477 -2.3687,11.6731 0.24712,24.46814 7.01367,34.59765 8.02461,12.01288 20.9646,19.64998 35.30078,20.81836 1.67185,0.13629 3.16847,0.25776 4.53125,0.10742 0.47561,-0.0524 1.38622,-0.10054 1.23242,-0.0996 0.87757,-0.005 1.71017,-0.26668 2.45899,-0.87695 0.74882,-0.61026 1.35742,-1.71773 1.35742,-2.85156 0,-4.5e-4 -0.0114,-0.2639 -0.0176,-0.32617 -0.006,-0.0623 0.0448,0.0308 -0.0762,-0.46289 l -0.004,-0.0137 -0.004,-0.0156 c -0.0338,-0.13182 -0.08,-0.27003 -0.10743,-0.34375 -0.0319,-0.0859 -0.0971,-0.24138 -0.1582,-0.36133 l -0.002,-0.002 c -0.0852,-0.16676 -0.17697,-0.31 -0.16992,-0.29883 h -0.002 v -0.002 c -0.0449,-0.071 -0.11274,-0.174 -0.18945,-0.28125 -0.12589,-0.17603 -0.24815,-0.3351 -0.39844,-0.53125 -0.31543,-0.41169 -0.75338,-0.96804 -1.31445,-1.67383 -1.12208,-1.41151 -2.73078,-3.40839 -4.71484,-5.85352 -3.96783,-4.88989 -9.43277,-11.56896 -15.44532,-18.86523 -7.5817,-9.20045 -13.09243,-15.83359 -16.77343,-20.18555 -1.84068,-2.1762 -3.21912,-3.77859 -4.19532,-4.87109 -0.4881,-0.54626 -0.87176,-0.9626 -1.20312,-1.29688 -0.15443,-0.15577 -0.31013,-0.3105 -0.52344,-0.49023 l -0.002,-0.002 c -0.1072,-0.0902 -0.28005,-0.22393 -0.45703,-0.33594 l -0.002,-0.002 c 0.35318,0.22285 0.053,-0.0203 -0.42578,-0.24024 -0.48136,-0.22114 -1.01196,-0.29492 -1.39844,-0.29492 z m 2.10157,7.83594 c 0.82767,0.94978 1.59197,1.82011 2.86914,3.33007 3.64837,4.31338 9.15168,10.93869 16.72656,20.13086 6.00509,7.28722 11.46355,13.95672 15.41797,18.83008 1.62997,2.00875 2.80807,3.47851 3.85742,4.79102 -0.60398,-0.0184 -0.82313,-0.001 -1.45508,-0.0527 -12.63533,-1.02976 -23.9948,-7.72828 -31.08203,-18.33789 -5.59504,-8.37576 -7.82845,-19.02968 -6.33398,-28.6914 z"
       id="path8653"
       inkscape:connector-curvature="0" />
    <path
       style="color:#000000;font-style:normal;font-variant:normal;font-weight:normal;font-stretch:normal;font-size:medium;line-height:normal;font-family:sans-serif;font-variant-ligatures:normal;font-variant-position:normal;font-variant-caps:normal;font-variant-numeric:normal;font-variant-alternates:normal;font-feature-settings:normal;text-indent:0;text-align:start;text-decoration:none;text-decoration-line:none;text-decoration-style:solid;text-decoration-color:#000000;letter-spacing:normal;word-spacing:normal;text-transform:none;writing-mode:lr-tb;direction:ltr;text-orientation:mixed;dominant-baseline:auto;baseline-shift:baseline;text-anchor:start;white-space:normal;shape-padding:0;clip-rule:nonzero;display:inline;overflow:visible;visibility:visible;opacity:1;isolation:auto;mix-blend-mode:normal;color-interpolation:sRGB;color-interpolation-filters:linearRGB;solid-color:#000000;solid-opacity:1;vector-effect:none;fill:none;fill-opacity:1;fill-rule:nonzero;stroke:#000000;stroke-width:0.1875;stroke-linecap:butt;stroke-linejoin:miter;stroke-miterlimit:4;stroke-dasharray:none;stroke-dashoffset:0;stroke-opacity:1;color-rendering:auto;image-rendering:auto;shape-rendering:auto;text-rendering:auto;enable-background:accumulate"
       d="m 688.86719,744.24805 -3.92188,0.19336 c -13.20107,0.64886 -25.83816,6.83895 -34.32226,17.37695 -1.10877,1.37721 -2.22847,2.96159 -3.11914,4.35352 -0.44392,0.69374 -0.83006,1.33447 -1.14453,1.92968 -0.15682,0.29683 -0.29915,0.58751 -0.42774,0.90625 -0.0624,0.15457 -0.34375,0.87285 -0.34375,1.61328 0,0 0.0228,0.35154 0.0273,0.38477 0.005,0.0332 0.006,0.0454 0.008,0.0566 0.004,0.0226 0.005,0.0314 0.006,0.0391 0.003,0.0153 0.004,0.0218 0.006,0.0293 0.003,0.015 0.005,0.0283 0.008,0.043 0.006,0.0294 0.0129,0.0637 0.0215,0.10547 0.009,0.0418 0.0167,0.0883 0.0332,0.1582 0.0166,0.0699 -0.0842,-0.042 0.18945,0.56055 0.0742,0.16298 0.19322,0.36433 0.16406,0.31445 l 0.002,0.002 c 0.0254,0.0434 0.0793,0.13579 0.14649,0.23438 l 0.002,0.002 0.002,0.004 c 0.0713,0.10416 0.13077,0.1834 0.18946,0.26172 0.12444,0.16598 0.27202,0.35554 0.46094,0.5957 0.38153,0.48504 0.91905,1.15564 1.60156,2.00195 1.36659,1.69458 3.31108,4.08493 5.64844,6.94532 4.67429,5.72026 10.91672,13.31773 17.19921,20.9414 6.28245,7.62363 12.60306,15.27256 17.44141,21.0957 1.58571,1.90846 2.69058,3.22627 3.9043,4.67774 l 4.90625,5.75 c 0.26206,0.24134 0.51457,0.45699 0.75586,0.64648 0.1194,0.0938 0.25649,0.19841 0.42773,0.31055 0.0362,0.0237 0.20055,0.13235 0.39649,0.23047 v -0.002 c -0.40108,-0.20098 -0.0844,3e-5 0.35546,0.16406 0.43989,0.16402 0.86081,0.20117 1.16993,0.20117 0.61925,0 1.25252,-0.2039 1.32031,-0.22461 0.27057,-0.0827 0.53499,-0.17562 0.82226,-0.2832 0.5724,-0.21437 1.2472,-0.49015 1.98243,-0.80664 1.46645,-0.63127 3.13786,-1.40771 4.46093,-2.09961 12.21187,-6.38623 21.1418,-18.37009 24.09766,-32.20703 1.03134,-4.82735 1.03778,-13.99272 -0.0156,-18.78711 -3.95675,-18.00768 -17.47473,-32.00551 -35.125,-36.2793 -3.11976,-0.75541 -6.27105,-1.06111 -9.41406,-1.16406 z m -3.64453,5.81054 c 3.87433,-0.19042 7.79663,0.1631 11.65625,1.09766 15.56629,3.76919 27.44344,16.02683 30.95703,32.01758 0.61133,2.7824 0.62585,13.51148 0.008,16.40429 -2.60912,12.21382 -10.56425,22.83481 -21.20313,28.39844 -1.1207,0.58608 -2.72913,1.33532 -4.07812,1.91602 -0.54122,0.23298 -0.98627,0.40947 -1.39453,0.56836 l -0.34375,-0.40235 c -0.0543,-0.0634 -0.0509,-0.0581 -0.0547,-0.0625 l -0.002,-0.002 v -0.002 c -0.42483,-0.49501 -1.02291,-1.20151 -1.76172,-2.08008 -1.4766,-1.75591 -3.51873,-4.203 -5.93359,-7.10938 -4.83003,-5.81313 -11.15058,-13.4605 -17.42969,-21.08007 -6.27909,-7.61955 -12.51785,-15.21208 -17.1836,-20.92188 -2.33266,-2.85465 -4.27206,-5.24033 -5.625,-6.91797 -0.54523,-0.67609 -0.91614,-1.1428 -1.2539,-1.56836 0.1901,-0.33366 0.37868,-0.6684 0.66211,-1.11133 0.77623,-1.21307 1.82144,-2.68707 2.76367,-3.85742 7.44566,-9.24816 18.59449,-14.71585 30.2168,-15.28711 z"
       id="path8657"
       inkscape:connector-curvature="0"
       sodipodi:nodetypes="cccccccccccscccccccccccssscccccccsccccccscccsccccccccccssccccccc" />
  </g>
</svg>
